Lab 3
…
6.3

popp <- pop_data %>%
  group_by(STNAME) %>% 
  summarise(state_pop = sum(POPESTIMATE2021)) %>% 
  inner_join(state_data, by = c("STNAME"="state")) %>% 
  mutate(perCap = new_cases / state_pop) %>% 
  group_by(STNAME) %>% 
  mutate(rolling_avg_percap = zoo::rollmean(perCap, k = 7, align = "right", fill = NA)) %>% 
  ungroup()
  
print(popp, n = 5)

# A tibble: 3,192 × 8
  STNAME  state_pop date       total_cases new_cases rolling_mean      perCap
  <chr>       <dbl> <date>           <dbl>     <dbl>        <dbl>       <dbl>
1 Alabama   5050380 2020-03-13           6        NA           NA NA         
2 Alabama   5050380 2020-03-14          12         6           NA  0.00000119
3 Alabama   5050380 2020-03-15          23        11           NA  0.00000218
4 Alabama   5050380 2020-03-16          29         6           NA  0.00000119
5 Alabama   5050380 2020-03-17          39        10           NA  0.00000198
# ℹ 3,187 more rows
# ℹ 1 more variable: rolling_avg_percap <dbl>
…
